<svg xmlns="http://www.w3.org/2000/svg" width="100%" height="100%" viewBox="0 0 100 100" stroke="#fff" stroke-width="16">
    <g>
        <line x1="30" y1="80" x2="90" y2="20" />
        <line x1="15" y1="55" x2="40" y2="80" />
    </g>
</svg>