<svg xmlns="http://www.w3.org/2000/svg" width="280px" height="280px" viewBox="0 0 280 280" stroke="#fff" stroke-linecap="round" stroke-width="11" fill="none" >
  <g>
    <line x1="90" y1="10" x2="90" y2="260" />
    <line x1="180" y1="10" x2="180" y2="260" />
    <line y1="90" x1="10" y2="90" x2="260" />
    <line y1="180" x1="10" y2="180" x2="260" />
    <circle cx="135" cy="45" r="27" />
    <line x1="20" y1="20" x2="70" y2="70" /><line x1="70" y1="20" x2="20" y2="70" />
    <line x1="200" y1="20" x2="250" y2="70" /><line x1="250" y1="20" x2="200" y2="70" />
    <circle cx="45" cy="135" r="27" stroke="#ee1149" />
    <circle cx="135" cy="135" r="27" stroke="#ee1149" />
    <circle cx="225" cy="135" r="27" stroke="#ee1149" />
    <line x1="20" y1="200" x2="70" y2="250" /><line x1="70" y1="200" x2="20" y2="250" />
    <line x1="110" y1="200" x2="160" y2="250" /><line x1="160" y1="200" x2="110" y2="250" />
  </g>
</svg>